Project 1: An Exploratory Analysis of My Spotify Listening Data and Weather
…
An additional column that contains the day of week has been added. For the weather data, the Camp Mabry data because it contains temperature information.

## Using all six core functions to manipulate and
## explore dataset

# adding day of week label
fulldata <- fulldata %>% mutate(dayofweek = wday(date, 
    label = T))

# using pivot wider to summarize msPlayed by each
# artist
fulldata %>% pivot_wider(names_from = artistName, values_from = msPlayed, 
    values_fn = sum)

## # A tibble: 19,264 x 3,062
##    date       time  trackName STATION NAME   AWND  PRCP  SNOW  SNWD TAVG   TMAX
##    <date>     <chr> <chr>     <chr>   <chr> <dbl> <dbl> <dbl> <dbl> <lgl> <dbl>
##  1 2020-03-06 00:01 Rojo      USW000… AUST…  4.92     0     0     0 NA       71
##  2 2020-03-06 00:03 Ganas de… USW000… AUST…  4.92     0     0     0 NA       71
##  3 2020-03-06 04:16 Caribou … USW000… AUST…  4.92     0     0     0 NA       71
##  4 2020-03-06 04:20 De Vez E… USW000… AUST…  4.92     0     0     0 NA       71
##  5 2020-03-06 04:22 algo due… USW000… AUST…  4.92     0     0     0 NA       71
##  6 2020-03-06 04:23 No es pa… USW000… AUST…  4.92     0     0     0 NA       71
##  7 2020-03-06 04:23 Rojo      USW000… AUST…  4.92     0     0     0 NA       71
##  8 2020-03-06 04:23 algo due… USW000… AUST…  4.92     0     0     0 NA       71
##  9 2020-03-06 04:23 Ayer      USW000… AUST…  4.92     0     0     0 NA       71
## 10 2020-03-06 04:26 Encima D… USW000… AUST…  4.92     0     0     0 NA       71
## # … with 19,254 more rows, and 3,051 more variables: TMIN <dbl>, TOBS <lgl>,
## #   WDF2 <dbl>, WDF5 <dbl>, WESD <lgl>, WESF <lgl>, WSF2 <dbl>, WSF5 <dbl>,
## #   WT01 <dbl>, WT02 <dbl>, WT03 <dbl>, WT04 <dbl>, WT05 <lgl>, WT06 <dbl>,
## #   WT08 <dbl>, WT09 <lgl>, dayofweek <ord>, `J Balvin` <int>, `Wisin &
## #   Yandel` <int>, `Tech N9ne` <int>, `Johan Sotelo` <int>, `Natalia
## #   Lacunza` <int>, `Carlos Baute` <int>, `Leo Bash` <int>, `Alejandro
## #   Santamaria` <int>, Residente <int>, Arevalo <int>, `Bad Bunny` <int>, `Jary
## #   Franco` <int>, Maluma <int>, `Kany Garcia` <int>, `Natti Natasha` <int>,
## #   `Rauw Alejandro` <int>, `Ovy On The Drums` <int>, `Andy Rivera` <int>,
…
# most popular artists in October and TAVG for each
# of those
fulldata %>% select(date, msPlayed, artistName, TMAX) %>% 
    group_by(date = floor_date(date, "month"), artistName, 
        TMAX) %>% summarize(hrs_played = sum(msPlayed)/3600000) %>% 
    arrange(-hrs_played)

## # A tibble: 11,179 x 4
## # Groups:   date, artistName [6,372]
##    date       artistName       TMAX hrs_played
##    <date>     <chr>           <dbl>      <dbl>
##  1 2020-04-01 Khalid             89       4.22
##  2 2020-05-01 Kany Garcia        89       4.07
##  3 2020-04-01 Khalid             80       3.67
##  4 2020-06-01 Bossa Nova Jazz    86       2.98
##  5 2020-08-01 Jerry Di          103       2.68
##  6 2020-05-01 Kany Garcia        85       2.53
##  7 2020-11-01 Kany Garcia        84       2.50
##  8 2020-05-01 Jazz Lounge Bar    95       2.23
##  9 2020-08-01 Justin Bieber     104       1.80
## 10 2020-10-01 Khalid             85       1.71
## # … with 11,169 more rows
…
# artist with most no. of hours played
fulldata %>% select(artistName, msPlayed) %>% group_by(artistName) %>% 
    summarize(total_hrs = sum(msPlayed)/3600000) %>% 
    arrange(-total_hrs)

## # A tibble: 3,034 x 2
##    artistName    total_hrs
##    <chr>             <dbl>
##  1 Kany Garcia       21.1 
##  2 Maluma            14.1 
##  3 Khalid            13.0 
##  4 Justin Bieber      9.95
##  5 Bad Bunny          9.85
##  6 J Balvin           9.45
##  7 Farruko            7.70
##  8 KAROL G            7.68
##  9 Camilo             7.35
## 10 Ozuna              7.33
## # … with 3,024 more rows

# song with most no. of hours played
fulldata %>% select(trackName, artistName, msPlayed) %>% 
    group_by(trackName, artistName) %>% summarize(total_hrs = sum(msPlayed)/3600000) %>% 
    arrange(-total_hrs)

## # A tibble: 6,740 x 3
## # Groups:   trackName [6,407]
##    trackName                      artistName     total_hrs
##    <chr>                          <chr>              <dbl>
##  1 Hawái                          Maluma              4.13
##  2 La Curiosidad                  Jay Wheeler         3.12
##  3 Ay, DiOs Mío!                  KAROL G             2.71
##  4 Intentions                     Justin Bieber       2.68
##  5 Anaranjado                     Jowell & Randy      2.68
##  6 Favorito                       Camilo              2.27
##  7 UN DIA (ONE DAY) (Feat. Tainy) J Balvin            2.22
##  8 Loco - Remix                   Farruko             2.20
##  9 Raro                           Nacho               2.17
## 10 Te Olvidaré                    MYA                 2.12
## # … with 6,730 more rows
…
##   msPlayed TMIN TMAX PRCP minPlayed
## 1  2061307   83  108 2.37  34.35512

# creating summary stats for grouping by artistName
# & day of week
fulldata %>% select(msPlayed, TMIN, TMAX, PRCP, AWND, 
    artistName, dayofweek) %>% group_by(dayofweek, 
    artistName) %>% summarize(total_hrs = sum(msPlayed)/3600000, 
    mean_tmin = mean(TMIN), mean_tmax = mean(TMAX), 
    mean_prcp = mean(PRCP), mean_windsp = mean(AWND)) %>% 
    arrange(-total_hrs)

## # A tibble: 6,443 x 7
## # Groups:   dayofweek [7]
##    dayofweek artistName      total_hrs mean_tmin mean_tmax mean_prcp mean_windsp
##    <ord>     <chr>               <dbl>     <dbl>     <dbl>     <dbl>       <dbl>
##  1 Fri       Kany Garcia          5.68      65.6      85.7    0.215         4.25
##  2 Sat       Kany Garcia          5.31      63.3      87.2    0.121         2.66
##  3 Sat       Maluma               4.51      59.5      80.6    0.265         4.17
##  4 Sun       Kany Garcia          4.50      69.5      86.5    0.0348        4.61
##  5 Tue       Khalid               4.38      70        89.3    0.0005        2.74
##  6 Mon       Khalid               3.86      59.6      78.8    0             1.99
##  7 Thu       The Daily            3.22      49.8      74.7    0.005         3.82
##  8 Fri       Bossa Nova Jazz      3.05      70.6      85.9    0.560         5.01
##  9 Sat       Bad Bunny            2.83      57.4      78.2    0.09          4.36
## 10 Sun       Maluma               2.79      59.8      84.7    0.0606        4.54
## # … with 6,433 more rows

# creating summary stats for grouping by trackName
# & day of week
fulldata %>% select(msPlayed, TMIN, TMAX, PRCP, AWND, 
    trackName, dayofweek) %>% group_by(dayofweek, trackName) %>% 
    summarize(total_hrs = sum(msPlayed)/3600000, mean_tmin = mean(TMIN), 
        mean_tmax = mean(TMAX), mean_prcp = mean(PRCP), 
        mean_windsp = mean(AWND)) %>% arrange(-total_hrs)

## # A tibble: 11,644 x 7
## # Groups:   dayofweek [7]
##    dayofweek trackName       total_hrs mean_tmin mean_tmax mean_prcp mean_windsp
##    <ord>     <chr>               <dbl>     <dbl>     <dbl>     <dbl>       <dbl>
##  1 Sun       Favorito            1.06       62.7      91.2   0.0584         4.20
##  2 Sun       Loco - Remix        1.04       69.9      95.4   0.00522        3.58
##  3 Sun       La Curiosidad       0.956      64.5      89.6   0.00130        3.90
##  4 Sat       Hawái               0.943      63.7      88     0.232          3.27
##  5 Thu       Intentions          0.895      66.1      91     0.0782         3.46
##  6 Sun       TBT - Remix         0.878      70.3      94.5   0.00267        3.64
##  7 Thu       The Field: The…     0.839      40        64     0              5.82
##  8 Sun       Te Olvidaré         0.814      70.0      92.2   0.0015         4.96
##  9 Sat       La Santa            0.803      60.7      79.9   0.0153         4.76
## 10 Sat       La Curiosidad       0.792      70.2      93.5   0.0818         3.28
## # … with 11,634 more rows

# creating summary stats for grouping by artist &
# month
fulldata %>% select(date, msPlayed, TMIN, TMAX, PRCP, 
    AWND, artistName, dayofweek) %>% group_by(artistName, 
    month = floor_date(date, "month")) %>% summarize(total_hrs = sum(msPlayed)/3600000, 
    mean_tmin = mean(TMIN), mean_tmax = mean(TMAX), 
    mean_prcp = mean(PRCP), mean_windsp = mean(AWND)) %>% 
    arrange(-total_hrs)

## # A tibble: 6,372 x 7
## # Groups:   artistName [3,034]
##    artistName     month      total_hrs mean_tmin mean_tmax mean_prcp mean_windsp
##    <chr>          <date>         <dbl>     <dbl>     <dbl>     <dbl>       <dbl>
##  1 Khalid         2020-04-01     10.0       66.1      86.0   0.00105        2.51
##  2 Kany Garcia    2020-05-01      9.46      67.8      86.2   0.497          3.85
##  3 Bossa Nova Ja… 2020-06-01      3.87      73.0      87.6   0.472          5.49
##  4 Kany Garcia    2020-06-01      3.73      73.4      94.5   0.109          3.96
##  5 Maluma         2020-08-01      3.68      73.9     100.    0.312          4.09
##  6 Justin Bieber  2020-08-01      3.02      74.7     103.    0.0187         3.19
##  7 The Daily      2020-11-01      2.94      58.1      83.4   0              3.35
##  8 Ozuna          2020-10-01      2.87      57.9      84.1   0.0359         4.28
##  9 Jerry Di       2020-08-01      2.87      76.8     103.    0              5.82
## 10 Kany Garcia    2020-11-01      2.68      62.4      82.3   0.00944        3.51
## # … with 6,362 more rows
…
